4Bit, 16Bit, 32Bit Adders/output.vcd
$date
	Thu Aug 20 17:45:02 2020
$end
$version
	Icarus Verilog
$end
$timescale
	1s
$end
$scope module top $end
$var wire 32 ! sum [31:0] $end
$var wire 1 " ca $end
$var reg 32 # a [31:0] $end
$var reg 32 $ b [31:0] $end
$var reg 1 % cin $end
$scope module FullAdd_0 $end
$var wire 32 & a [31:0] $end
$var wire 32 ' b [31:0] $end
$var wire 1 % cin $end
$var wire 32 ( sum [31:0] $end
$var wire 1 " ca $end
$var wire 1 ) c1 $end
$scope module EBA_0 $end
$var wire 16 * a [15:0] $end
$var wire 16 + b [15:0] $end
$var wire 1 % cin $end
$var wire 16 , sum [15:0] $end
$var wire 1 ) ca $end
$var wire 1 - c3 $end
$var wire 1 . c2 $end
$var wire 1 / c1 $end
$scope module FBA_0 $end
$var wire 4 0 a [3:0] $end
$var wire 4 1 b [3:0] $end
$var wire 1 % cin $end
$var wire 4 2 sum [3:0] $end
$var wire 1 / ca $end
$var wire 1 3 c3 $end
$var wire 1 4 c2 $end
$var wire 1 5 c1 $end
$scope module FA_0 $end
$var wire 1 6 a $end
$var wire 1 7 b $end
$var wire 1 5 ca $end
$var wire 1 % cin $end
$var wire 1 8 sum $end
$var wire 1 9 w1 $end
$var wire 1 : w2 $end
$var wire 1 ; w3 $end
$var wire 1 < w4 $end
$var wire 1 = w5 $end
$upscope $end
$scope module FA_1 $end
$var wire 1 > a $end
$var wire 1 ? b $end
$var wire 1 4 ca $end
$var wire 1 5 cin $end
$var wire 1 @ sum $end
$var wire 1 A w1 $end
$var wire 1 B w2 $end
$var wire 1 C w3 $end
$var wire 1 D w4 $end
$var wire 1 E w5 $end
$upscope $end
$scope module FA_2 $end
$var wire 1 F a $end
$var wire 1 G b $end
$var wire 1 3 ca $end
$var wire 1 4 cin $end
$var wire 1 H sum $end
$var wire 1 I w1 $end
$var wire 1 J w2 $end
$var wire 1 K w3 $end
$var wire 1 L w4 $end
$var wire 1 M w5 $end
$upscope $end
$scope module FA_3 $end
$var wire 1 N a $end
$var wire 1 O b $end
$var wire 1 / ca $end
$var wire 1 3 cin $end
$var wire 1 P sum $end
$var wire 1 Q w1 $end
$var wire 1 R w2 $end
$var wire 1 S w3 $end
$var wire 1 T w4 $end
$var wire 1 U w5 $end
$upscope $end
$upscope $end
$scope module FBA_1 $end
$var wire 4 V a [3:0] $end
$var wire 4 W b [3:0] $end
$var wire 1 / cin $end
$var wire 4 X sum [3:0] $end
$var wire 1 . ca $end
$var wire 1 Y c3 $end
$var wire 1 Z c2 $end
$var wire 1 [ c1 $end
$scope module FA_0 $end
$var wire 1 \ a $end
$var wire 1 ] b $end
$var wire 1 [ ca $end
$var wire 1 / cin $end
$var wire 1 ^ sum $end
$var wire 1 _ w1 $end
$var wire 1 ` w2 $end
$var wire 1 a w3 $end
$var wire 1 b w4 $end
$var wire 1 c w5 $end
$upscope $end
$scope module FA_1 $end
$var wire 1 d a $end
$var wire 1 e b $end
$var wire 1 Z ca $end
$var wire 1 [ cin $end
$var wire 1 f sum $end
$var wire 1 g w1 $end
$var wire 1 h w2 $end
$var wire 1 i w3 $end
$var wire 1 j w4 $end
$var wire 1 k w5 $end
$upscope $end
$scope module FA_2 $end
$var wire 1 l a $end
$var wire 1 m b $end
$var wire 1 Y ca $end
$var wire 1 Z cin $end
$var wire 1 n sum $end
$var wire 1 o w1 $end
$var wire 1 p w2 $end
$var wire 1 q w3 $end
$var wire 1 r w4 $end
$var wire 1 s w5 $end
$upscope $end
$scope module FA_3 $end
$var wire 1 t a $end
$var wire 1 u b $end
$var wire 1 . ca $end
$var wire 1 Y cin $end
$var wire 1 v sum $end
$var wire 1 w w1 $end
$var wire 1 x w2 $end
$var wire 1 y w3 $end
$var wire 1 z w4 $end
$var wire 1 { w5 $end
$upscope $end
$upscope $end
$scope module FBA_2 $end
$var wire 4 | a [3:0] $end
$var wire 4 } b [3:0] $end
$var wire 1 . cin $end
$var wire 4 ~ sum [3:0] $end
$var wire 1 - ca $end
$var wire 1 !" c3 $end
$var wire 1 "" c2 $end
$var wire 1 #" c1 $end
$scope module FA_0 $end
$var wire 1 $" a $end
$var wire 1 %" b $end
$var wire 1 #" ca $end
$var wire 1 . cin $end
$var wire 1 &" sum $end
$var wire 1 '" w1 $end
$var wire 1 (" w2 $end
$var wire 1 )" w3 $end
$var wire 1 *" w4 $end
$var wire 1 +" w5 $end
$upscope $end
$scope module FA_1 $end
$var wire 1 ," a $end
$var wire 1 -" b $end
$var wire 1 "" ca $end
$var wire 1 #" cin $end
$var wire 1 ." sum $end
$var wire 1 /" w1 $end
$var wire 1 0" w2 $end
$var wire 1 1" w3 $end
$var wire 1 2" w4 $end
$var wire 1 3" w5 $end
$upscope $end
$scope module FA_2 $end
$var wire 1 4" a $end
$var wire 1 5" b $end
$var wire 1 !" ca $end
$var wire 1 "" cin $end
$var wire 1 6" sum $end
$var wire 1 7" w1 $end
$var wire 1 8" w2 $end
$var wire 1 9" w3 $end
$var wire 1 :" w4 $end
$var wire 1 ;" w5 $end
$upscope $end
$scope module FA_3 $end
$var wire 1 <" a $end
$var wire 1 =" b $end
$var wire 1 - ca $end
$var wire 1 !" cin $end
$var wire 1 >" sum $end
$var wire 1 ?" w1 $end
$var wire 1 @" w2 $end
$var wire 1 A" w3 $end
$var wire 1 B" w4 $end
$var wire 1 C" w5 $end
$upscope $end
$upscope $end
$scope module FBA_3 $end
$var wire 4 D" a [3:0] $end
$var wire 4 E" b [3:0] $end
$var wire 1 - cin $end
$var wire 4 F" sum [3:0] $end
$var wire 1 ) ca $end
$var wire 1 G" c3 $end
$var wire 1 H" c2 $end
$var wire 1 I" c1 $end
$scope module FA_0 $end
$var wire 1 J" a $end
$var wire 1 K" b $end
$var wire 1 I" ca $end
$var wire 1 - cin $end
$var wire 1 L" sum $end
$var wire 1 M" w1 $end
$var wire 1 N" w2 $end
$var wire 1 O" w3 $end
$var wire 1 P" w4 $end
$var wire 1 Q" w5 $end
$upscope $end
$scope module FA_1 $end
$var wire 1 R" a $end
$var wire 1 S" b $end
$var wire 1 H" ca $end
$var wire 1 I" cin $end
$var wire 1 T" sum $end
$var wire 1 U" w1 $end
$var wire 1 V" w2 $end
$var wire 1 W" w3 $end
$var wire 1 X" w4 $end
$var wire 1 Y" w5 $end
$upscope $end
$scope module FA_2 $end
$var wire 1 Z" a $end
$var wire 1 [" b $end
$var wire 1 G" ca $end
$var wire 1 H" cin $end
$var wire 1 \" sum $end
$var wire 1 ]" w1 $end
$var wire 1 ^" w2 $end
$var wire 1 _" w3 $end
$var wire 1 `" w4 $end
$var wire 1 a" w5 $end
$upscope $end
$scope module FA_3 $end
$var wire 1 b" a $end
$var wire 1 c" b $end
$var wire 1 ) ca $end
$var wire 1 G" cin $end
$var wire 1 d" sum $end
$var wire 1 e" w1 $end
$var wire 1 f" w2 $end
$var wire 1 g" w3 $end
$var wire 1 h" w4 $end
$var wire 1 i" w5 $end
$upscope $end
$upscope $end
$upscope $end
$scope module EBA_1 $end
$var wire 16 j" a [15:0] $end
$var wire 16 k" b [15:0] $end
$var wire 1 ) cin $end
$var wire 16 l" sum [15:0] $end
$var wire 1 " ca $end
$var wire 1 m" c3 $end
$var wire 1 n" c2 $end
$var wire 1 o" c1 $end
$scope module FBA_0 $end
$var wire 4 p" a [3:0] $end
$var wire 4 q" b [3:0] $end
$var wire 1 ) cin $end
$var wire 4 r" sum [3:0] $end
$var wire 1 o" ca $end
$var wire 1 s" c3 $end
$var wire 1 t" c2 $end
$var wire 1 u" c1 $end
$scope module FA_0 $end
$var wire 1 v" a $end
$var wire 1 w" b $end
$var wire 1 u" ca $end
$var wire 1 ) cin $end
$var wire 1 x" sum $end
$var wire 1 y" w1 $end
$var wire 1 z" w2 $end
$var wire 1 {" w3 $end
$var wire 1 |" w4 $end
$var wire 1 }" w5 $end
$upscope $end
$scope module FA_1 $end
$var wire 1 ~" a $end
$var wire 1 !# b $end
$var wire 1 t" ca $end
$var wire 1 u" cin $end
$var wire 1 "# sum $end
$var wire 1 ## w1 $end
$var wire 1 $# w2 $end
$var wire 1 %# w3 $end
$var wire 1 &# w4 $end
$var wire 1 '# w5 $end
$upscope $end
$scope module FA_2 $end
$var wire 1 (# a $end
$var wire 1 )# b $end
$var wire 1 s" ca $end
$var wire 1 t" cin $end
$var wire 1 *# sum $end
$var wire 1 +# w1 $end
$var wire 1 ,# w2 $end
$var wire 1 -# w3 $end
$var wire 1 .# w4 $end
$var wire 1 /# w5 $end
$upscope $end
$scope module FA_3 $end
$var wire 1 0# a $end
$var wire 1 1# b $end
$var wire 1 o" ca $end
$var wire 1 s" cin $end
$var wire 1 2# sum $end
$var wire 1 3# w1 $end
$var wire 1 4# w2 $end
$var wire 1 5# w3 $end
$var wire 1 6# w4 $end
$var wire 1 7# w5 $end
$upscope $end
$upscope $end
$scope module FBA_1 $end
$var wire 4 8# a [3:0] $end
$var wire 4 9# b [3:0] $end
$var wire 1 o" cin $end
$var wire 4 :# sum [3:0] $end
$var wire 1 n" ca $end
$var wire 1 ;# c3 $end
$var wire 1 <# c2 $end
$var wire 1 =# c1 $end
$scope module FA_0 $end
$var wire 1 ># a $end
$var wire 1 ?# b $end
$var wire 1 =# ca $end
$var wire 1 o" cin $end
$var wire 1 @# sum $end
$var wire 1 A# w1 $end
$var wire 1 B# w2 $end
$var wire 1 C# w3 $end
$var wire 1 D# w4 $end
$var wire 1 E# w5 $end
$upscope $end
$scope module FA_1 $end
$var wire 1 F# a $end
$var wire 1 G# b $end
$var wire 1 <# ca $end
$var wire 1 =# cin $end
$var wire 1 H# sum $end
$var wire 1 I# w1 $end
$var wire 1 J# w2 $end
$var wire 1 K# w3 $end
$var wire 1 L# w4 $end
$var wire 1 M# w5 $end
$upscope $end
$scope module FA_2 $end
$var wire 1 N# a $end
$var wire 1 O# b $end
$var wire 1 ;# ca $end
$var wire 1 <# cin $end
$var wire 1 P# sum $end
$var wire 1 Q# w1 $end
$var wire 1 R# w2 $end
$var wire 1 S# w3 $end
$var wire 1 T# w4 $end
$var wire 1 U# w5 $end
$upscope $end
$scope module FA_3 $end
$var wire 1 V# a $end
$var wire 1 W# b $end
$var wire 1 n" ca $end
$var wire 1 ;# cin $end
$var wire 1 X# sum $end
$var wire 1 Y# w1 $end
$var wire 1 Z# w2 $end
$var wire 1 [# w3 $end
$var wire 1 \# w4 $end
$var wire 1 ]# w5 $end
$upscope $end
$upscope $end
$scope module FBA_2 $end
$var wire 4 ^# a [3:0] $end
$var wire 4 _# b [3:0] $end
$var wire 1 n" cin $end
$var wire 4 `# sum [3:0] $end
$var wire 1 m" ca $end
$var wire 1 a# c3 $end
$var wire 1 b# c2 $end
$var wire 1 c# c1 $end
$scope module FA_0 $end
$var wire 1 d# a $end
$var wire 1 e# b $end
$var wire 1 c# ca $end
$var wire 1 n" cin $end
$var wire 1 f# sum $end
$var wire 1 g# w1 $end
$var wire 1 h# w2 $end
$var wire 1 i# w3 $end
$var wire 1 j# w4 $end
$var wire 1 k# w5 $end
$upscope $end
$scope module FA_1 $end
$var wire 1 l# a $end
$var wire 1 m# b $end
$var wire 1 b# ca $end
$var wire 1 c# cin $end
$var wire 1 n# sum $end
$var wire 1 o# w1 $end
$var wire 1 p# w2 $end
$var wire 1 q# w3 $end
$var wire 1 r# w4 $end
$var wire 1 s# w5 $end
$upscope $end
$scope module FA_2 $end
$var wire 1 t# a $end
$var wire 1 u# b $end
$var wire 1 a# ca $end
$var wire 1 b# cin $end
$var wire 1 v# sum $end
$var wire 1 w# w1 $end
$var wire 1 x# w2 $end
$var wire 1 y# w3 $end
$var wire 1 z# w4 $end
$var wire 1 {# w5 $end
$upscope $end
$scope module FA_3 $end
$var wire 1 |# a $end
$var wire 1 }# b $end
$var wire 1 m" ca $end
$var wire 1 a# cin $end
$var wire 1 ~# sum $end
$var wire 1 !$ w1 $end
$var wire 1 "$ w2 $end
$var wire 1 #$ w3 $end
$var wire 1 $$ w4 $end
$var wire 1 %$ w5 $end
$upscope $end
$upscope $end
$scope module FBA_3 $end
$var wire 4 &$ a [3:0] $end
$var wire 4 '$ b [3:0] $end
$var wire 1 m" cin $end
$var wire 4 ($ sum [3:0] $end
$var wire 1 " ca $end
$var wire 1 )$ c3 $end
$var wire 1 *$ c2 $end
$var wire 1 +$ c1 $end
$scope module FA_0 $end
$var wire 1 ,$ a $end
$var wire 1 -$ b $end
$var wire 1 +$ ca $end
$var wire 1 m" cin $end
$var wire 1 .$ sum $end
$var wire 1 /$ w1 $end
$var wire 1 0$ w2 $end
$var wire 1 1$ w3 $end
$var wire 1 2$ w4 $end
$var wire 1 3$ w5 $end
$upscope $end
$scope module FA_1 $end
$var wire 1 4$ a $end
$var wire 1 5$ b $end
$var wire 1 *$ ca $end
$var wire 1 +$ cin $end
$var wire 1 6$ sum $end
$var wire 1 7$ w1 $end
$var wire 1 8$ w2 $end
$var wire 1 9$ w3 $end
$var wire 1 :$ w4 $end
$var wire 1 ;$ w5 $end
$upscope $end
$scope module FA_2 $end
$var wire 1 <$ a $end
$var wire 1 =$ b $end
$var wire 1 )$ ca $end
$var wire 1 *$ cin $end
$var wire 1 >$ sum $end
$var wire 1 ?$ w1 $end
$var wire 1 @$ w2 $end
$var wire 1 A$ w3 $end
$var wire 1 B$ w4 $end
$var wire 1 C$ w5 $end
$upscope $end
$scope module FA_3 $end
$var wire 1 D$ a $end
$var wire 1 E$ b $end
$var wire 1 " ca $end
$var wire 1 )$ cin $end
$var wire 1 F$ sum $end
$var wire 1 G$ w1 $end
$var wire 1 H$ w2 $end
$var wire 1 I$ w3 $end
$var wire 1 J$ w4 $end
$var wire 1 K$ w5 $end
$upscope $end
$upscope $end
$upscope $end
$upscope $end
$upscope $end
$enddefinitions $end
#0
$dumpvars
xK$
xJ$
xI$
xH$
xG$
xF$
xE$
xD$
xC$
xB$
xA$
x@$
x?$
x>$
x=$
x<$
x;$
x:$
x9$
x8$
x7$
x6$
x5$
x4$
x3$
x2$
x1$
x0$
x/$
x.$
x-$
x,$
x+$
x*$
x)$
bx ($
bx '$
bx &$
x%$
x$$
x#$
x"$
x!$
x~#
x}#
x|#
x{#
xz#
xy#
xx#
xw#
xv#
xu#
xt#
xs#
xr#
xq#
xp#
xo#
xn#
xm#
xl#
xk#
xj#
xi#
xh#
xg#
xf#
xe#
xd#
xc#
xb#
xa#
bx `#
bx _#
bx ^#
x]#
x\#
x[#
xZ#
xY#
xX#
xW#
xV#
xU#
xT#
xS#
xR#
xQ#
xP#
xO#
xN#
xM#
xL#
xK#
xJ#
xI#
xH#
xG#
xF#
xE#
xD#
xC#
xB#
xA#
x@#
x?#
x>#
x=#
x<#
x;#
bx :#
bx 9#
bx 8#
x7#
x6#
x5#
x4#
x3#
x2#
x1#
x0#
x/#
x.#
x-#
x,#
x+#
x*#
x)#
x(#
x'#
x&#
x%#
x$#
x##
x"#
x!#
x~"
x}"
x|"
x{"
xz"
xy"
xx"
xw"
xv"
xu"
xt"
xs"
bx r"
bx q"
bx p"
xo"
xn"
xm"
bx l"
bx k"
bx j"
xi"
xh"
xg"
xf"
xe"
xd"
xc"
xb"
xa"
x`"
x_"
x^"
x]"
x\"
x["
xZ"
xY"
xX"
xW"
xV"
xU"
xT"
xS"
xR"
xQ"
xP"
xO"
xN"
xM"
xL"
xK"
xJ"
xI"
xH"
xG"
bx F"
bx E"
bx D"
xC"
xB"
xA"
x@"
x?"
x>"
x="
x<"
x;"
x:"
x9"
x8"
x7"
x6"
x5"
x4"
x3"
x2"
x1"
x0"
x/"
x."
x-"
x,"
x+"
x*"
x)"
x("
x'"
x&"
x%"
x$"
x#"
x""
x!"
bx ~
bx }
bx |
x{
xz
xy
xx
xw
xv
xu
xt
xs
xr
xq
xp
xo
xn
xm
xl
xk
xj
xi
xh
xg
xf
xe
xd
xc
xb
xa
x`
x_
x^
x]
x\
x[
xZ
xY
bx X
bx W
bx V
xU
xT
xS
xR
xQ
xP
xO
xN
xM
xL
xK
xJ
xI
xH
xG
xF
xE
xD
xC
xB
xA
x@
x?
x>
x=
x<
x;
x:
x9
x8
x7
x6
x5
x4
x3
bx 2
bx 1
bx 0
x/
x.
x-
bx ,
bx +
bx *
x)
bx (
bx '
bx &
x%
bx $
bx #
x"
bx !
$end
#1
0=
0E
0M
0U
0c
0k
0s
0{
0+"
03"
0;"
0C"
0Q"
0Y"
0a"
0i"
0}"
0'#
0/#
07#
0E#
0M#
0U#
0]#
0k#
0s#
0{#
0%$
03$
0;$
0C$
0K$
0:
0;
0B
0C
0J
0K
0R
0S
0`
0a
0h
0i
0p
0q
0x
0y
0("
0)"
00"
01"
08"
09"
0@"
0A"
0N"
0O"
0V"
0W"
0^"
0_"
0f"
0g"
0z"
0{"
0$#
0%#
0,#
0-#
04#
05#
0B#
0C#
0J#
0K#
0R#
0S#
0Z#
0[#
0h#
0i#
0p#
0q#
0x#
0y#
0"$
0#$
00$
01$
08$
09$
0@$
0A$
0H$
0I$
06
0>
0F
0N
0\
0d
0l
0t
0$"
0,"
04"
0<"
0J"
0R"
0Z"
0b"
0v"
0~"
0(#
00#
0>#
0F#
0N#
0V#
0d#
0l#
0t#
0|#
0,$
04$
0<$
0D$
b0 0
b0 V
b0 |
b0 D"
b0 p"
b0 8#
b0 ^#
b0 &$
b0 *
b0 j"
b0 #
b0 &
#2
0@
0H
b0x 2
0P
0^
0f
0n
b0 X
0v
0&"
0."
06"
b0 ~
0>"
0L"
0T"
0\"
b0x ,
b0 F"
0d"
0x"
0"#
0*#
b0 r"
02#
0@#
0H#
0P#
b0 :#
0X#
0f#
0n#
0v#
b0 `#
0~#
0.$
06$
0>$
b0x !
b0x (
b0 l"
b0 ($
0F$
05
04
03
0/
0[
0Z
0Y
0.
0#"
0""
0!"
0-
0I"
0H"
0G"
0)
0u"
0t"
0s"
0o"
0=#
0<#
0;#
0n"
0c#
0b#
0a#
0m"
0+$
0*$
0)$
0"
09
0<
0A
0D
0I
0L
0Q
0T
0_
0b
0g
0j
0o
0r
0w
0z
0'"
0*"
0/"
02"
07"
0:"
0?"
0B"
0M"
0P"
0U"
0X"
0]"
0`"
0e"
0h"
0y"
0|"
0##
0&#
0+#
0.#
03#
06#
0A#
0D#
0I#
0L#
0Q#
0T#
0Y#
0\#
0g#
0j#
0o#
0r#
0w#
0z#
0!$
0$$
0/$
02$
07$
0:$
0?$
0B$
0G$
0J$
07
0?
0G
0O
0]
0e
0m
0u
0%"
0-"
05"
0="
0K"
0S"
0["
0c"
0w"
0!#
0)#
01#
0?#
0G#
0O#
0W#
0e#
0m#
0u#
0}#
0-$
05$
0=$
0E$
b0 1
b0 W
b0 }
b0 E"
b0 q"
b0 9#
b0 _#
b0 '$
b0 +
b0 k"
b0 $
b0 '
#3
b0 !
b0 (
b0 ,
b0 2
08
0%
#4
18
1@
1H
b1111 2
1P
1^
1f
1n
b1111 X
1v
1&"
1."
16"
b1111 ~
1>"
1L"
1T"
1\"
b1111111111111111 ,
b1111 F"
1d"
1x"
1"#
1*#
b1111 r"
12#
1@#
1H#
1P#
b1111 :#
1X#
1f#
1n#
1v#
b1111 `#
1~#
1.$
16$
1>$
b11111111111111111111111111111111 !
b11111111111111111111111111111111 (
b1111111111111111 l"
b1111 ($
1F$
19
1A
1I
1Q
1_
1g
1o
1w
1'"
1/"
17"
1?"
1M"
1U"
1]"
1e"
1y"
1##
1+#
13#
1A#
1I#
1Q#
1Y#
1g#
1o#
1w#
1!$
1/$
17$
1?$
1G$
16
1>
1F
1N
1\
1d
1l
1t
1$"
1,"
14"
1<"
1J"
1R"
1Z"
1b"
1v"
1~"
1(#
10#
1>#
1F#
1N#
1V#
1d#
1l#
1t#
1|#
1,$
14$
1<$
1D$
b1111 0
b1111 V
b1111 |
b1111 D"
b1111 p"
b1111 8#
b1111 ^#
b1111 &$
b1111111111111111 *
b1111111111111111 j"
b11111111111111111111111111111111 #
b11111111111111111111111111111111 &
#5
1C
1D
1K
1L
1S
1T
1a
1b
1i
1j
1q
1r
1y
1z
1)"
1*"
11"
12"
19"
1:"
1A"
1B"
1O"
1P"
1W"
1X"
1_"
1`"
1g"
1h"
1{"
1|"
1%#
1&#
1-#
1.#
15#
16#
1C#
1D#
1K#
1L#
1S#
1T#
1[#
1\#
1i#
1j#
1q#
1r#
1y#
1z#
1#$
1$$
11$
12$
19$
1:$
1A$
1B$
1I$
1J$
15
14
13
1/
1[
1Z
1Y
1.
1#"
1""
1!"
1-
1I"
1H"
1G"
1)
1u"
1t"
1s"
1o"
1=#
1<#
1;#
1n"
1c#
1b#
1a#
1m"
1+$
1*$
1)$
1"
08
1=
1@
1E
1H
1M
b1110 2
1P
1U
1^
1c
1f
1k
1n
1s
b1111 X
1v
1{
1&"
1+"
1."
13"
16"
1;"
b1111 ~
1>"
1C"
1L"
1Q"
1T"
1Y"
1\"
1a"
b1111111111111110 ,
b1111 F"
1d"
1i"
1x"
1}"
1"#
1'#
1*#
1/#
b1111 r"
12#
17#
1@#
1E#
1H#
1M#
1P#
1U#
b1111 :#
1X#
1]#
1f#
1k#
1n#
1s#
1v#
1{#
b1111 `#
1~#
1%$
1.$
13$
16$
1;$
1>$
1C$
b11111111111111111111111111111110 !
b11111111111111111111111111111110 (
b1111111111111111 l"
b1111 ($
1F$
1K$
09
1:
0A
1B
0I
1J
0Q
1R
0_
1`
0g
1h
0o
1p
0w
1x
0'"
1("
0/"
10"
07"
18"
0?"
1@"
0M"
1N"
0U"
1V"
0]"
1^"
0e"
1f"
0y"
1z"
0##
1$#
0+#
1,#
03#
14#
0A#
1B#
0I#
1J#
0Q#
1R#
0Y#
1Z#
0g#
1h#
0o#
1p#
0w#
1x#
0!$
1"$
0/$
10$
07$
18$
0?$
1@$
0G$
1H$
17
1?
1G
1O
1]
1e
1m
1u
1%"
1-"
15"
1="
1K"
1S"
1["
1c"
1w"
1!#
1)#
11#
1?#
1G#
1O#
1W#
1e#
1m#
1u#
1}#
1-$
15$
1=$
1E$
b1111 1
b1111 W
b1111 }
b1111 E"
b1111 q"
b1111 9#
b1111 _#
b1111 '$
b1111111111111111 +
b1111111111111111 k"
b11111111111111111111111111111111 $
b11111111111111111111111111111111 '
#6
b11111111111111111111111111111111 !
b11111111111111111111111111111111 (
b1111111111111111 ,
b1111 2
18
1;
1<
1%
#7
08
b1010 2
0H
0^
b1010 X
0n
0&"
b1010 ~
06"
0L"
b1010101010101010 ,
b1010 F"
0\"
0x"
b1010 r"
0*#
0@#
b1010 :#
0P#
0f#
b1010 `#
0v#
0.$
b10101010101010101010101010101010 !
b10101010101010101010101010101010 (
b1010101010101010 l"
b1010 ($
0>$
19
0:
0<
1I
0J
0L
1_
0`
0b
1o
0p
0r
1'"
0("
0*"
17"
08"
0:"
1M"
0N"
0P"
1]"
0^"
0`"
1y"
0z"
0|"
1+#
0,#
0.#
1A#
0B#
0D#
1Q#
0R#
0T#
1g#
0h#
0j#
1w#
0x#
0z#
1/$
00$
02$
1?$
0@$
0B$
07
0G
0]
0m
0%"
05"
0K"
0["
0w"
0)#
0?#
0O#
0e#
0u#
0-$
0=$
b1010 1
b1010 W
b1010 }
b1010 E"
b1010 q"
b1010 9#
b1010 _#
b1010 '$
b1010101010101010 +
b1010101010101010 k"
b10101010101010101010101010101010 $
b10101010101010101010101010101010 '
